material Wall 
{
	technique
	{
		pass
		{
			cull_hardware none	
			cull_software none
			normalise_normals yes
			shading phong
			//lighting off
		}
	}
}

material TranspWall : Wall
{
	technique
	{
		pass
		{
			scene_blend alpha_blend
            //depth_check off
			depth_write off
			ambient vertexcolour
			diffuse vertexcolour
		}
	}
}

material ColoredWall : Wall
{
	technique
	{
		pass
		{
			//scene_blend alpha_blend
            //depth_check off
			//depth_write off
			ambient vertexcolour
			diffuse vertexcolour
			//scene_blend alpha_blend
			//depth_write off
			//depth_check off
		}
	}
}

material BlackWall : Wall
{
	technique
	{
		pass
		{
			ambient 0.1 0.1 0.1
			diffuse 0.1 0.1 0.1 1.0
			
		}
	}
}

material BlueWall : Wall //0x0000FF
{
	technique
	{
		pass
		{
			ambient 0.0 0.0 0.5
			diffuse 0.0 0.0 0.5 1.0
		}
	}
}

material GreenWall : Wall  //0x00FF00
{
	technique
	{
		pass
		{
			ambient 0.0 0.25 0.0
			diffuse 0.0 0.25 0.0 1.0
		}
	}
}

material AquaWall : Wall  //0x00FFFF
{
	technique
	{
		pass
		{
			ambient 0.0 0.5 0.5 
			diffuse 0.0 0.5 0.5 1.0
		}
	}
}

material RedWall : Wall //0xFF0000
{
	technique
	{
		pass
		{
			ambient 0.25 0.0 0.0
			diffuse 0.25 0.0 0.0 1.0
		}
	}
}

material PurpleWall : Wall //0x800080
{
	technique
	{
		pass
		{
			ambient 0.25 0.0 0.25
			diffuse 0.25 0.0 0.25 1.0
		}
	}
}

material SoftRedWall : Wall //0xF08080
{
	technique
	{
		pass
		{
			ambient 0.47 0.25 0.25
			diffuse 0.47 0.25 0.25 1.0
		}
	}
}

material LightGrayWall : Wall //0xC0C0C0
{
	technique
	{
		pass
		{
			ambient 0.38 0.38 0.38
			diffuse 0.38 0.38 0.38 1.0
		}
	}
}

material DarkGrayWall : Wall //0x808080
{
	technique
	{
		pass
		{
			ambient 0.25 0.25 0.25
			diffuse 0.25 0.25 0.25 1.0
		}
	}
}

material PureBlueWall : Wall //0x00aaff
{
	technique
	{
		pass
		{
			ambient 0 0.333 0.5
			diffuse 0 0.333 0.5 1.0
		}
	}
}

material LimeWall : Wall //0x00FF00
{
	technique
	{
		pass
		{
			ambient 0 0.5 0.0
			diffuse 0 0.5 0.0 1.0
		}
	}
}

material KhakiWall : Wall //0xC0C020
{
	technique
	{
		pass
		{
			ambient 0.38 0.38 0.062
			diffuse 0.38 0.38 0.062 1.0
		}
	}
}

material FuchsiaWall : Wall //0xFF00FF
{
	technique
	{
		pass
		{
			ambient 0.5 0.0 0.5
			diffuse 0.5 0.0 0.5 1.0
		}
	}
}

material YellowWall : Wall //0xFFFF00
{
	technique
	{
		pass
		{
			ambient 0.5 0.5 0.0
			diffuse 0.5 0.5 0.0 1.0
		}
	}
}

material WhiteWall : Wall //0xFFFFFF
{
	technique
	{
		pass
		{
			ambient 0.5 0.5 0.5
			diffuse 0.5 0.5 0.5 1.0
		}
	}
}

material OrangeWall : Wall //0xF0AA2A
{
	technique
	{
		pass
		{
			ambient 0.47 0.333 0.082
			diffuse 0.47 0.333 0.082 1.0
		}
	}
}


