%!PS-Adobe-1.0
%%BoundingBox: 0 0 401  733  
0.4000 setlinewidth
stroke

0 0 1 setrgbcolor
newpath
385.4268  716.4567   moveto
379.2189  716.9102   lineto
370.8000  698.0315   lineto
361.0205  699.5906   lineto
347.4142  699.5906   lineto
345.5433  688.9890   lineto
340.5827  681.3922   lineto
331.0866  672.2079   lineto
316.0913  638.5323   lineto
308.2110  593.8866   lineto
304.0441  588.5291   lineto
290.6646  576.4819   lineto
286.8378  576.6803   lineto
281.1685  576.8787   lineto
276.6898  577.5591   lineto
269.5464  564.6614   lineto
264.1323  567.7795   lineto
254.7496  563.8110   lineto
250.3842  543.2882   lineto
230.7402  531.9496   lineto
224.8441  526.6205   lineto
218.7780  529.7102   lineto
210.2457  510.5480   lineto
222.4630  445.4362   moveto
211.0677  443.2252   lineto
222.4630  445.4362   moveto
212.6551  457.5685   lineto
206.2205  498.1606   lineto
210.2457  510.5480   moveto
206.2205  498.1606   lineto
206.2205  498.1606   moveto
173.9055  502.4693   lineto
158.9386  517.9748   lineto
154.1480  517.5496   lineto
147.2882  490.0535   lineto
147.2882  477.2976   lineto
139.4079  474.0945   lineto
130.1386  465.7606   lineto
126.0000  466.7811   lineto
stroke

0 0.66 0 setrgbcolor
newpath
126.0000  466.7811   moveto
120.4157  461.9055   lineto
114.8598  382.6488   lineto
108.0000  350.3622   lineto
100.5165  322.4126   lineto
95.8394  284.4283   lineto
90.3969  253.4457   lineto
79.7386  213.7606   lineto
79.7386  213.7606   moveto
43.8803  223.3701   lineto
27.1559  211.6630   lineto
79.7386  213.7606   moveto
69.8457  214.2709   lineto
stroke

0 1 1 setrgbcolor
newpath
69.8457  214.2709   moveto
64.8567  213.1370   lineto
57.0898  192.1323   lineto
57.0898  192.1323   moveto
29.7354  184.7055   lineto
21.8835  166.7622   lineto
57.0898  192.1323   moveto
53.7732  191.7071   lineto
49.6913  178.8094   lineto
40.5071  135.1276   lineto
40.5071  135.1276   moveto
23.0173  137.5087   lineto
4.7622  166.7622   lineto
40.5071  135.1276   moveto
29.4520  134.6457   lineto
21.4016  91.1622   lineto
14.7118  43.4268   lineto
5.6126  0.7370   lineto
0.0000  0.0000   lineto
stroke
0.5 0.5 0.5 setrgbcolor
379.2189  718.3524 moveto 
380.5840  719.2955   
383.7880  720.4446    
385.4268  720.7087 curveto
stroke
381.7628  712.8485 moveto 
382.6417  713.4556   
384.3717  714.8694    
385.4268  715.0394 curveto
stroke
370.7195  715.1897 moveto 
372.5229  716.5659   
377.3531  717.0634    
379.2189  718.3524 curveto
stroke
377.3996  697.3065 moveto 
380.6145  699.7598   
378.4367  710.5505    
381.7628  712.8485 curveto
stroke
359.6167  704.1663 moveto 
363.5186  704.4008   
367.6060  712.8137    
370.7195  715.1897 curveto
stroke
361.0205  698.4494 moveto 
365.1220  698.6959   
374.1268  694.8090    
377.3996  697.3065 curveto
stroke
345.4947  707.2446 moveto 
348.3453  709.5473   
355.9664  703.9470    
359.6167  704.1663 curveto
stroke
348.1250  697.2222 moveto 
350.6479  699.2604   
357.7897  698.2553    
361.0205  698.4494 curveto
stroke
343.6054  688.9681 moveto 
345.8773  692.8969   
341.9109  704.3494    
345.4947  707.2446 curveto
stroke
348.5876  690.2418 moveto 
349.4607  691.7516   
346.8109  696.1606    
348.1250  697.2222 curveto
stroke
327.5192  683.3658 moveto 
330.9968  686.3329   
341.2846  684.9549    
343.6054  688.9681 curveto
stroke
342.9275  681.2692 moveto 
344.8915  682.9450   
347.2769  687.9753    
348.5876  690.2418 curveto
stroke
318.7645  675.0645 moveto 
323.2195  683.9766   
319.9048  676.8690    
327.5192  683.3658 curveto
stroke
340.1382  672.1918 moveto 
341.3430  674.6019   
340.8684  679.5123    
342.9275  681.2692 curveto
stroke
308.4579  638.5274 moveto 
312.2938  651.5085   
312.8496  663.2322    
318.7645  675.0645 curveto
stroke
330.3679  638.5274 moveto 
332.8316  646.8647   
336.3393  664.5923    
340.1382  672.1918 curveto
stroke
298.3048  599.8906 moveto 
301.8573  609.2439   
305.6495  629.0236    
308.4579  638.5274 curveto
stroke
312.7228  597.3388 moveto 
316.7022  607.8161   
327.2220  627.8814    
330.3679  638.5274 curveto
stroke
298.8743  588.5012 moveto 
300.3689  590.9733   
297.2780  597.1871    
298.3048  599.8906 curveto
stroke
304.1729  588.5012 moveto 
304.7231  589.4113   
311.5970  594.3745    
312.7228  597.3388 curveto
stroke
291.2684  577.0506 moveto 
291.3571  577.0471   
297.0661  585.5103    
298.8743  588.5012 curveto
stroke
291.1457  573.3103 moveto 
296.2080  573.1097   
301.5555  584.1719    
304.1729  588.5012 curveto
stroke
286.8378  589.1308 moveto 
290.0000  588.5414   
288.0472  577.1782    
291.2684  577.0506 curveto
stroke
286.8378  575.5195 moveto 
288.0256  575.2982   
289.9357  573.3583    
291.1457  573.3103 curveto
stroke
281.1685  582.6196 moveto 
283.2785  583.0760   
284.7219  589.5251    
286.8378  589.1308 curveto
stroke
281.1685  573.8749 moveto 
282.6156  574.1878   
285.3867  575.7900    
286.8378  575.5195 curveto
stroke
272.7670  583.2301 moveto 
274.6860  584.0865   
279.1027  582.1729    
281.1685  582.6196 curveto
stroke
277.9435  573.4482 moveto 
278.6998  573.7858   
280.3542  573.6988    
281.1685  573.8749 curveto
stroke
266.7812  570.6411 moveto 
269.6746  572.5817   
269.6028  581.8179    
272.7670  583.2301 curveto
stroke
269.6926  564.1243 moveto 
272.3055  565.8768   
275.0860  572.1730    
277.9435  573.4482 curveto
stroke
264.1323  568.5376 moveto 
265.1021  568.3517   
265.9391  570.0764    
266.7812  570.6411 curveto
stroke
264.1323  562.1057 moveto 
265.5666  561.8309   
268.4474  563.2892    
269.6926  564.1243 curveto
stroke
240.4450  591.3688 moveto 
247.6927  594.6920   
255.7738  570.1396    
264.1323  568.5376 curveto
stroke
264.0822  562.0657 moveto 
264.2650  562.1495   
263.9215  562.1461    
264.1323  562.1057 curveto
stroke
218.3767  543.2584 moveto 
225.8490  553.7976   
229.2829  586.2509    
240.4450  591.3688 curveto
stroke
253.3773  524.4543 moveto 
258.9031  532.2480   
255.8279  558.2809    
264.0822  562.0657 curveto
stroke
228.7879  532.8397 moveto 
233.2345  536.6777   
215.0039  538.5013    
218.3767  543.2584 curveto
stroke
230.3010  528.9719 moveto 
235.0473  533.0685   
249.7773  519.3767    
253.3773  524.4543 curveto
stroke
224.8441  527.4708 moveto 
226.1970  527.8178   
227.5646  531.7838    
228.7879  532.8397 curveto
stroke
224.8441  522.3432 moveto 
227.0139  522.8998   
228.6576  527.5533    
230.3010  528.9719 curveto
stroke
216.8945  530.5309 moveto 
218.8870  531.2981   
223.6969  527.1765    
224.8441  527.4708 curveto
stroke
220.0957  525.9915 moveto 
221.5087  526.5356   
223.3779  521.9670    
224.8441  522.3432 curveto
stroke
206.9150  514.2164 moveto 
208.8858  518.5335   
212.4415  528.8162    
216.8945  530.5309 curveto
stroke
212.9407  509.1906 moveto 
214.9496  513.5911   
216.5165  524.6133    
220.0957  525.9915 curveto
stroke
196.4581  509.6472 moveto 
198.5708  511.3748   
205.7347  511.6310    
206.9150  514.2164 curveto
stroke
213.3236  484.2818 moveto 
217.9525  488.0670   
210.3548  503.5258    
212.9407  509.1906 curveto
stroke
219.1723  459.5039 moveto 
220.8942  455.5414   
231.8516  450.2838    
230.2799  446.2607 curveto
stroke
206.3416  460.1265 moveto 
208.1132  456.0495   
218.3028  450.0725    
216.6857  445.9333 curveto
stroke
213.3236  484.2818 moveto 
208.9780  480.7282   
216.5617  465.5116    
219.1723  459.5039 curveto
stroke
196.4581  509.6472 moveto 
187.1336  502.0221   
201.3077  471.7109    
206.3416  460.1265 curveto
stroke
173.9055  536.4720 moveto 
182.0351  533.3326   
189.9948  504.3619    
196.4581  509.6472 curveto
stroke
176.7208  500.8912 moveto 
186.1945  497.2327   
205.7917  478.1226    
213.3236  484.2818 curveto
stroke
158.9386  520.7878 moveto 
164.3398  521.2324   
168.8765  538.4141    
173.9055  536.4720 curveto
stroke
158.9386  515.1185 moveto 
161.4796  515.3277   
171.4249  502.9363    
176.7208  500.8912 curveto
stroke
153.8026  518.2758 moveto 
154.7472  519.3649   
157.4980  520.6693    
158.9386  520.7878 curveto
stroke
155.9406  513.6796 moveto 
156.4843  514.3064   
158.1095  515.0503    
158.9386  515.1185 curveto
stroke
144.8466  487.4235 moveto 
146.8297  495.2057   
148.5522  512.2224    
153.8026  518.2758 curveto
stroke
150.7160  490.5427 moveto 
152.1951  496.3473   
152.0973  509.2484    
155.9406  513.6796 curveto
stroke
139.7971  481.3606 moveto 
140.8133  483.0654   
144.3567  485.5011    
144.8466  487.4235 curveto
stroke
147.8133  477.8060 moveto 
149.5279  480.6823   
149.8894  487.2992    
150.7160  490.5427 curveto
stroke
139.4079  476.9686 moveto 
140.2763  477.6838   
139.2209  480.3940    
139.7971  481.3606 curveto
stroke
139.4079  471.7859 moveto 
141.4053  473.4308   
146.4881  475.5829    
147.8133  477.8060 curveto
stroke
130.1386  474.2455 moveto 
132.4660  474.8678   
137.5438  475.4336    
139.4079  476.9686 curveto
stroke
130.1386  464.3243 moveto 
133.0052  465.0908   
137.1119  469.8953    
139.4079  471.7859 curveto
stroke
126.0370  473.9476 moveto 
127.0460  474.1328   
129.1478  473.9806    
130.1386  474.2455 curveto
stroke
126.0411  463.1128 moveto 
127.0894  463.3053   
129.1091  464.0490    
130.1386  464.3243 curveto
stroke
97.7152  461.8979 moveto 
101.1764  468.6430   
118.4742  472.5591    
126.0370  473.9476 curveto
stroke
127.4596  461.8978 moveto 
128.2329  463.4048   
124.3513  462.8026    
126.0411  463.1128 curveto
stroke
111.6353  382.6364 moveto 
113.9354  402.5493   
88.6664  444.2640    
97.7152  461.8979 curveto
stroke
148.6242  382.6363 moveto 
150.9662  402.9119   
119.2855  445.9684    
127.4596  461.8978 curveto
stroke
73.9359  350.3344 moveto 
77.4383  362.0258   
110.2073  370.2741    
111.6353  382.6364 curveto
stroke
156.0451  350.3344 moveto 
158.6013  358.8672   
147.5821  373.6139    
148.6242  382.6363 curveto
stroke
90.5422  322.4063 moveto 
91.3676  330.7135   
71.5888  342.4992    
73.9359  350.3344 curveto
stroke
136.6779  322.4063 moveto 
137.6362  332.0505   
153.3201  341.2382    
156.0451  350.3344 curveto
stroke
85.4562  284.4239 moveto 
87.5592  293.6832   
89.5961  312.8848    
90.5422  322.4063 curveto
stroke
136.6916  284.4239 moveto 
138.9855  294.5233   
135.6461  312.0208    
136.6779  322.4063 curveto
stroke
68.1883  253.4374 moveto 
72.1481  261.9102   
83.3898  275.3259    
85.4562  284.4239 curveto
stroke
109.2155  253.4373 moveto 
113.5778  262.7714   
134.4152  274.4011    
136.6916  284.4239 curveto
stroke
58.6262  224.4965 moveto 
62.3106  227.4821   
64.9923  246.5987    
68.1883  253.4374 curveto
stroke
114.8961  230.2818 moveto 
117.9630  232.7670   
106.5552  247.7450    
109.2155  253.4373 curveto
stroke
55.1942  214.2539 moveto 
65.1125  224.3482   
122.4879  236.4338    
114.8961  230.2818 curveto
stroke
106.6189  226.8039 moveto 
114.6373  234.9646   
64.7637  229.4700    
58.6262  224.4965 curveto
stroke
53.3811  213.0986 moveto 
55.5420  215.0436   
53.3433  212.3702    
55.1942  214.2539 curveto
stroke
67.9549  214.0118 moveto 
75.7825  221.0572   
99.9144  219.9804    
106.6189  226.8039 curveto
stroke
39.5728  192.1304 moveto 
39.5728  198.7348   
48.5102  208.7144    
53.3811  213.0986 curveto
stroke
59.6084  192.1304 moveto 
59.6084  198.1880   
63.7594  210.2354    
67.9549  214.0118 curveto
stroke
22.5862  194.9985 moveto 
25.6367  198.1544   
39.5728  187.7139    
39.5728  192.1304 curveto
stroke
30.6740  184.0804 moveto 
31.8322  185.2786   
59.6084  184.2921    
59.6084  192.1304 curveto
stroke
39.2315  192.1304 moveto 
39.3325  192.8383   
39.5728  191.3036    
39.5728  192.1304 curveto
stroke
59.8937  188.2970 moveto 
60.1111  189.8207   
59.6084  190.3507    
59.6084  192.1304 curveto
stroke
16.7618  167.4761 moveto 
18.1199  174.3518   
17.7256  189.9700    
22.5862  194.9985 curveto
stroke
27.5520  165.9403 moveto 
28.4418  170.4453   
28.4372  181.7664    
30.6740  184.0804 curveto
stroke
9.6267  137.4895 moveto 
5.1213  143.7869   
15.2595  159.8710    
16.7618  167.4761 curveto
stroke
23.9194  137.4895 moveto 
22.9406  138.8577   
26.1530  158.8582    
27.5520  165.9403 curveto
stroke
40.5018  178.7832 moveto 
40.6503  182.2311   
38.8100  189.1751    
39.2315  192.1304 curveto
stroke
59.9053  178.7833 moveto 
60.0686  182.5739   
59.4303  185.0478    
59.8937  188.2970 curveto
stroke
38.0562  135.1084 moveto 
38.0562  146.0517   
40.0309  167.8530    
40.5018  178.7832 curveto
stroke
57.9593  135.1084 moveto 
57.9593  146.9747   
59.3947  166.9312    
59.9053  178.7833 curveto
stroke
23.9194  137.4895 moveto 
24.0193  137.3499   
57.9593  143.9339    
57.9593  135.1084 curveto
stroke
9.6267  137.4895 moveto 
13.9033  131.5119   
38.0562  135.4441    
38.0562  135.1084 curveto
stroke
21.5150  135.1084 moveto 
24.1918  138.2714   
38.0562  134.9973    
38.0562  135.1084 curveto
stroke
40.5468  129.8044 moveto 
43.7668  133.6092   
57.9593  129.9183    
57.9593  135.1084 curveto
stroke
18.6653  91.1461 moveto 
20.9238  102.1120   
14.5533  126.8824    
21.5150  135.1084 curveto
stroke
35.2501  91.1461 moveto 
37.2148  100.6854   
34.4907  122.6485    
40.5468  129.8044 curveto
stroke
1.0544  43.4262 moveto 
4.1947  56.3947   
15.9787  78.1015    
18.6653  91.1461 curveto
stroke
27.7744  43.4261 moveto 
30.6278  55.2098   
32.8090  79.2932    
35.2501  91.1461 curveto
stroke

0.0000  0.0000 1.0000 setrgbcolor
newpath
385.4268  716.4567 moveto 
385.4228  720.6497 lineto 
387.4228  720.6516 moveto 
383.4228  720.6478 lineto 
385.4268  716.4567 moveto 
385.4177  716.3391 lineto 
383.4236  716.4929 moveto 
387.4118  716.1854 lineto 
385.4268  716.4567 moveto 
385.4358  716.5743 lineto 
387.4299  716.4206 moveto 
383.4417  716.7280 lineto 
385.4268  716.4567 moveto 
385.4281  715.0590 lineto 
383.4281  715.0571 moveto 
387.4281  715.0609 lineto 
379.2189  716.9351 moveto 
381.7628  712.8485 lineto 
380.0649  711.7916 moveto 
383.4607  713.9055 lineto 
379.2189  716.9351 moveto 
379.2176  718.3328 lineto 
381.2176  718.3347 moveto 
377.2176  718.3309 lineto 
379.2189  716.9351 moveto 
379.2189  716.9351 lineto 
379.2189  716.9351 moveto 
379.2189  716.9351 lineto 
379.2189  716.9351 moveto 
379.2189  716.9351 lineto 
379.2189  716.9351 moveto 
379.2189  716.9351 lineto 
370.8000  698.0312 moveto 
378.1328  698.0312 lineto 
378.1328  696.0312 moveto 
378.1328  700.0312 lineto 
370.8000  698.0312 moveto 
370.4017  702.9410 lineto 
372.3951  703.1027 moveto 
368.4083  702.7793 lineto 
370.8000  698.0312 moveto 
371.0134  698.0312 lineto 
371.0134  696.0312 moveto 
371.0134  700.0312 lineto 
370.8000  698.0312 moveto 
370.8000  715.0391 lineto 
372.8000  715.0391 moveto 
368.8000  715.0391 lineto 
361.0205  699.5833 moveto 
359.5313  704.1663 lineto 
361.4334  704.7844 moveto 
357.6292  703.5483 lineto 
361.0205  699.5833 moveto 
361.0205  699.5833 lineto 
361.0205  699.5833 moveto 
361.0205  699.5833 lineto 
361.0205  699.5833 moveto 
361.0205  699.5833 lineto 
361.0205  699.5833 moveto 
361.0205  699.5833 lineto 
361.0205  699.5833 moveto 
361.0244  698.4767 lineto 
359.0244  698.4695 moveto 
363.0244  698.4838 lineto 
347.4142  699.5833 moveto 
346.2987  703.0576 lineto 
348.2029  703.6690 moveto 
344.3944  702.4462 lineto 
347.4142  699.5833 moveto 
344.9644  704.0215 lineto 
346.7154  704.9880 moveto 
343.2134  703.0551 lineto 
347.4142  699.5833 moveto 
348.0876  701.4800 lineto 
349.9723  700.8109 moveto 
346.2028  702.1492 lineto 
347.4142  699.5833 moveto 
348.6273  697.3520 lineto 
346.8701  696.3967 moveto 
350.3844  698.3073 lineto 
347.4142  699.5833 moveto 
347.4142  708.0872 lineto 
349.4142  708.0872 moveto 
345.4142  708.0872 lineto 
347.4142  699.5833 moveto 
347.4142  699.5833 lineto 
347.4142  699.5833 moveto 
347.4142  699.5833 lineto 
345.5433  688.9753 moveto 
345.4294  688.9753 lineto 
345.4294  690.9753 moveto 
345.4294  686.9753 lineto 
345.5433  688.9753 moveto 
346.9606  688.9753 lineto 
346.9606  686.9753 moveto 
346.9606  690.9753 lineto 
345.5433  688.9753 moveto 
347.5830  690.3326 lineto 
348.6910  688.6675 moveto 
346.4750  691.9976 lineto 
345.5433  688.9753 moveto 
343.0076  688.9797 lineto 
343.0111  690.9797 moveto 
343.0041  686.9797 lineto 
340.5827  681.3679 moveto 
343.3009  681.3679 lineto 
343.3009  679.3679 moveto 
343.3009  683.3679 lineto 
340.5827  681.3679 moveto 
340.5827  681.3679 lineto 
340.5827  681.3679 moveto 
340.5827  681.3679 lineto 
340.5827  681.3679 moveto 
333.1801  686.3284 lineto 
334.2935  687.9899 moveto 
332.0667  684.6670 lineto 
340.5827  681.3679 moveto 
337.7520  686.2776 lineto 
339.4847  687.2766 moveto 
336.0193  685.2786 lineto 
340.5827  681.3679 moveto 
326.3780  682.7295 lineto 
326.5688  684.7203 moveto 
326.1872  680.7386 lineto 
340.5827  681.3679 moveto 
342.0209  682.6464 lineto 
343.3497  681.1517 moveto 
340.6921  684.1412 lineto 
331.0866  672.1918 moveto 
331.0866  672.1918 lineto 
331.0866  672.1918 moveto 
331.0866  672.1918 lineto 
331.0866  672.1918 moveto 
341.0262  672.1918 lineto 
341.0262  670.1918 moveto 
341.0262  674.1918 lineto 
331.0866  672.1918 moveto 
332.0528  672.7407 lineto 
333.0407  671.0017 moveto 
331.0649  674.4797 lineto 
331.0866  672.1918 moveto 
308.9635  675.4035 lineto 
309.2508  677.3828 moveto 
308.6761  673.4243 lineto 
331.0866  672.1918 moveto 
319.7480  672.1918 lineto 
319.7480  674.1918 moveto 
319.7480  670.1918 lineto 
331.0866  672.1918 moveto 
323.1882  672.1918 lineto 
323.1882  674.1918 moveto 
323.1882  670.1918 lineto 
316.0913  638.5274 moveto 
316.0913  638.5274 lineto 
316.0913  638.5274 moveto 
316.0913  638.5274 lineto 
316.0913  638.5274 moveto 
328.5352  638.5274 lineto 
328.5352  636.5274 moveto 
328.5352  640.5274 lineto 
316.0913  638.5274 moveto 
324.9995  638.5274 lineto 
324.9995  636.5274 moveto 
324.9995  640.5274 lineto 
316.0913  638.5274 moveto 
313.5222  638.5274 lineto 
313.5222  640.5274 moveto 
313.5222  636.5274 lineto 
316.0913  638.5274 moveto 
309.7449  638.5274 lineto 
309.7449  640.5274 moveto 
309.7449  636.5274 lineto 
308.2110  593.8622 moveto 
313.5038  595.8939 lineto 
314.2205  594.0267 moveto 
312.7870  597.7610 lineto 
308.2110  593.8622 moveto 
309.0162  602.1838 lineto 
311.0069  601.9912 moveto 
307.0255  602.3765 lineto 
308.2110  593.8622 moveto 
300.8744  600.2859 lineto 
302.1919  601.7906 moveto 
299.5569  598.7812 lineto 
308.2110  593.8622 moveto 
299.9594  593.8622 lineto 
299.9594  595.8622 moveto 
299.9594  591.8622 lineto 
304.0441  588.5012 moveto 
304.0441  588.5012 lineto 
304.0441  588.5012 moveto 
304.0441  588.5012 lineto 
304.0441  588.5012 moveto 
302.7948  588.5012 lineto 
302.7948  590.5012 moveto 
302.7948  586.5012 lineto 
304.0441  588.5012 moveto 
299.6253  588.5012 lineto 
299.6253  590.5012 moveto 
299.6253  586.5012 lineto 
304.0441  588.5012 moveto 
298.6969  588.5012 lineto 
298.6969  590.5012 moveto 
298.6969  586.5012 lineto 
290.6646  576.4569 moveto 
291.4992  576.8684 lineto 
292.3836  575.0746 moveto 
290.6148  578.6622 lineto 
290.6646  576.4569 moveto 
290.6646  576.4569 lineto 
290.6646  576.4569 moveto 
290.6646  576.4569 lineto 
290.6646  576.4569 moveto 
292.1246  573.8134 lineto 
290.3739  572.8464 moveto 
293.8753  574.7804 lineto 
290.6646  576.4569 moveto 
288.4357  576.0979 lineto 
288.1176  578.0724 moveto 
288.7538  574.1234 lineto 
286.8378  576.6572 moveto 
286.8378  581.9442 lineto 
288.8378  581.9442 moveto 
284.8378  581.9442 lineto 
286.8378  576.6572 moveto 
286.6595  585.7391 lineto 
288.6591  585.7784 moveto 
284.6599  585.6999 lineto 
286.8378  576.6572 moveto 
286.8377  581.1862 lineto 
288.8377  581.1862 moveto 
284.8377  581.1862 lineto 
286.8378  576.6572 moveto 
286.8540  575.8316 lineto 
284.8544  575.7924 moveto 
288.8536  575.8708 lineto 
281.1685  576.8550 moveto 
281.1678  582.5080 lineto 
283.1678  582.5082 moveto 
279.1678  582.5078 lineto 
281.1685  576.8550 moveto 
281.1685  576.8550 lineto 
281.1685  576.8550 moveto 
281.1685  576.8550 lineto 
281.1685  576.8550 moveto 
281.1689  574.0286 lineto 
279.1689  574.0284 moveto 
283.1689  574.0289 lineto 
276.6898  577.5490 moveto 
275.3620  577.5490 lineto 
275.3620  579.5490 moveto 
275.3620  575.5490 lineto 
276.6898  577.5490 moveto 
278.0892  573.5534 lineto 
276.2016  572.8923 moveto 
279.9767  574.2145 lineto 
276.6898  577.5490 moveto 
272.9636  582.7604 lineto 
274.5905  583.9237 moveto 
271.3366  581.5972 lineto 
276.6898  577.5490 moveto 
276.6152  581.8760 lineto 
278.6149  581.9104 moveto 
274.6155  581.8416 lineto 
269.5464  564.6569 moveto 
266.7019  570.4660 lineto 
268.4981  571.3456 moveto 
264.9057  569.5864 lineto 
269.5464  564.6569 moveto 
269.5464  564.6569 lineto 
269.5464  564.6569 moveto 
269.5464  564.6569 lineto 
269.5464  564.6569 moveto 
272.3539  567.3530 lineto 
273.7392  565.9105 moveto 
270.9685  568.7955 lineto 
269.5464  564.6569 moveto 
269.5464  564.6569 lineto 
269.5464  564.6569 moveto 
269.5464  564.6569 lineto 
264.1323  567.7750 moveto 
263.7393  567.6608 lineto 
263.1809  569.5812 moveto 
264.2978  565.7403 lineto 
264.1323  567.7750 moveto 
264.1323  567.7750 lineto 
264.1323  567.7750 moveto 
264.1323  567.7750 lineto 
264.1323  567.7750 moveto 
264.1323  567.7750 lineto 
264.1323  567.7750 moveto 
264.1323  567.7750 lineto 
264.1323  567.7750 moveto 
268.0616  568.9178 lineto 
268.6201  566.9974 moveto 
267.5030  570.8383 lineto 
254.7496  563.7877 moveto 
241.5488  583.4788 lineto 
243.2100  584.5925 moveto 
239.8875  582.3651 lineto 
254.7496  563.7877 moveto 
264.8714  562.7211 lineto 
264.6618  560.7321 moveto 
265.0810  564.7101 lineto 
254.7496  563.7877 moveto 
239.5234  590.7913 lineto 
241.4137  591.8571 moveto 
237.6332  589.7254 lineto 
254.7496  563.7877 moveto 
255.8035  569.2540 lineto 
257.7673  568.8754 moveto 
253.8396  569.6326 lineto 
254.7496  563.7877 moveto 
255.2645  563.7877 lineto 
255.2645  561.7877 moveto 
255.2645  565.7877 lineto 
250.3842  543.2698 moveto 
250.3842  543.2698 lineto 
250.3842  543.2698 moveto 
250.3842  543.2698 lineto 
250.3842  543.2698 moveto 
213.8025  543.2698 lineto 
213.8025  545.8305 moveto 
213.8025  540.7090 lineto 
250.3842  543.2698 moveto 
243.9588  542.4788 lineto 
243.7145  544.4639 moveto 
244.2032  540.4938 lineto 
250.3842  543.2698 moveto 
253.8523  524.0746 lineto 
251.8842  523.7190 moveto 
255.8205  524.4302 lineto 
230.7402  531.9313 moveto 
228.8906  532.8173 lineto 
229.7547  534.6210 moveto 
228.0265  531.0136 lineto 
230.7402  531.9313 moveto 
230.7402  531.9313 lineto 
230.7402  531.9313 moveto 
230.7402  531.9313 lineto 
230.7402  531.9313 moveto 
229.1569  530.6631 lineto 
227.9066  532.2242 moveto 
230.4072  529.1021 lineto 
230.7402  531.9313 moveto 
229.9875  528.8727 lineto 
228.0455  529.3506 moveto 
231.9296  528.3948 lineto 
224.8441  526.6204 moveto 
225.3372  526.9231 lineto 
226.3836  525.2186 moveto 
224.2909  528.6276 lineto 
224.8441  526.6204 moveto 
224.8441  526.6204 lineto 
224.8441  526.6204 moveto 
224.8441  526.6204 lineto 
224.8441  526.6204 moveto 
222.3783  525.1068 lineto 
221.3321  526.8113 moveto 
223.4246  523.4023 lineto 
218.7780  529.7089 moveto 
218.3780  527.7398 lineto 
216.4180  528.1379 moveto 
220.3380  527.3417 lineto 
218.7780  529.7089 moveto 
216.9420  530.4845 lineto 
217.7203  532.3268 moveto 
216.1637  528.6422 lineto 
218.7780  529.7089 moveto 
219.7575  526.3807 lineto 
217.8388  525.8160 moveto 
221.6761  526.9453 lineto 
218.7780  529.7089 moveto 
219.9480  526.2247 lineto 
218.0520  525.5880 moveto 
221.8439  526.8613 lineto 
210.2457  510.5461 moveto 
206.9998  514.2164 lineto 
208.4980  515.5414 moveto 
205.5016  512.8915 lineto 
210.2457  510.5461 moveto 
213.0882  509.1906 lineto 
212.2273  507.3853 moveto 
213.9491  510.9958 lineto 
210.2457  510.5461 moveto 
211.9735  514.9648 lineto 
213.8362  514.2365 moveto 
210.1109  515.6932 lineto 
210.2457  510.5461 moveto 
208.7237  506.7526 lineto 
206.8675  507.4973 moveto 
210.5799  506.0079 lineto 
222.4630  445.4326 moveto 
220.2915  447.2547 lineto 
221.5771  448.7868 moveto 
219.0060  445.7226 lineto 
222.4630  445.4326 moveto 
216.8489  446.2216 lineto 
217.1272  448.2021 moveto 
216.5705  444.2411 lineto 
222.4630  445.4326 moveto 
213.9914  446.1738 lineto 
214.1657  448.1662 moveto 
213.8171  444.1814 lineto 
222.4630  445.4326 moveto 
214.8665  444.4999 lineto 
214.6228  446.4850 moveto 
215.1102  442.5148 lineto 
212.6551  457.5487 moveto 
219.6668  457.0543 lineto 
219.5261  455.0593 moveto 
219.8074  459.0494 lineto 
212.6551  457.5487 moveto 
214.3718  464.2776 lineto 
216.3098  463.7832 moveto 
212.4339  464.7720 lineto 
212.6551  457.5487 moveto 
211.1169  459.2760 lineto 
212.6105  460.6061 moveto 
209.6233  457.9459 lineto 
212.6551  457.5487 moveto 
206.6902  460.7659 lineto 
207.6397  462.5262 moveto 
205.7408  459.0056 lineto 
206.2205  498.1450 moveto 
198.5225  509.6537 lineto 
200.1849  510.7656 moveto 
196.8601  508.5417 lineto 
206.2205  498.1450 moveto 
206.2205  498.1450 lineto 
206.2205  498.1450 moveto 
206.2205  498.1450 lineto 
206.2205  498.1450 moveto 
213.2733  498.8365 lineto 
213.4684  496.8460 moveto 
213.0781  500.8269 lineto 
206.2205  498.1450 moveto 
217.8818  484.2477 lineto 
216.3497  482.9621 moveto 
219.4139  485.5332 lineto 
173.9055  502.4563 moveto 
175.9561  502.9297 lineto 
176.4060  500.9810 moveto 
175.5062  504.8784 lineto 
173.9055  502.4563 moveto 
177.5678  503.0739 lineto 
177.9004  501.1018 moveto 
177.2352  505.0461 lineto 
173.9055  502.4563 moveto 
173.3189  532.0781 lineto 
175.3924  532.1191 moveto 
171.2454  532.0370 lineto 
158.9386  517.9532 moveto 
158.9386  517.9532 lineto 
158.9386  517.9532 moveto 
158.9386  517.9532 lineto 
158.9386  517.9532 moveto 
156.2229  518.1651 lineto 
156.3785  520.1591 moveto 
156.0673  516.1711 lineto 
158.9386  517.9532 moveto 
158.9386  517.9532 lineto 
158.9386  517.9532 moveto 
158.9386  517.9532 lineto 
158.9386  517.9532 moveto 
161.6543  517.7412 lineto 
161.4987  515.7473 moveto 
161.8099  519.7352 lineto 
154.1480  517.5332 moveto 
154.1480  517.5332 lineto 
154.1480  517.5332 moveto 
154.1480  517.5332 lineto 
154.1480  517.5332 moveto 
155.6711  513.6796 lineto 
153.8111  512.9445 moveto 
157.5311  514.4147 lineto 
154.1480  517.5332 moveto 
154.1480  517.5332 lineto 
154.1480  515.5332 moveto 
154.1480  519.5332 lineto 
147.2882  490.0288 moveto 
150.0402  490.3742 lineto 
150.2893  488.3898 moveto 
149.7912  492.3587 lineto 
147.2882  490.0288 moveto 
147.2882  490.0288 lineto 
147.2882  490.0288 moveto 
147.2882  490.0288 lineto 
147.2882  490.0288 moveto 
148.2912  488.7532 lineto 
146.7190  487.5170 moveto 
149.8634  489.9894 lineto 
147.2882  490.0288 moveto 
150.3041  482.3855 lineto 
148.4437  481.6515 moveto 
152.1645  483.1196 lineto 
147.2882  477.2729 moveto 
146.4847  481.5666 lineto 
148.4506  481.9344 moveto 
144.5188  481.1987 lineto 
147.2882  477.2729 moveto 
154.6520  481.2652 lineto 
155.6053  479.5070 moveto 
153.6988  483.0235 lineto 
147.2882  477.2729 moveto 
147.2882  477.2729 lineto 
147.2882  477.2729 moveto 
147.2882  477.2729 lineto 
147.2882  477.2729 moveto 
147.9234  479.7986 lineto 
149.8630  479.3108 moveto 
145.9838  480.2864 lineto 
139.4079  474.0872 moveto 
141.3510  472.1138 lineto 
139.9259  470.7106 moveto 
142.7761  473.5171 lineto 
139.4079  474.0872 moveto 
139.4079  474.0872 lineto 
139.4079  474.0872 moveto 
139.4079  474.0872 lineto 
139.4079  474.0872 moveto 
137.8534  475.6660 lineto 
139.2785  477.0692 moveto 
136.4283  474.2628 lineto 
130.1386  465.7416 moveto 
130.1386  465.7416 lineto 
130.1386  465.7416 moveto 
130.1386  465.7416 lineto 
130.1386  465.7416 moveto 
138.5045  464.9539 lineto 
138.3170  462.9628 moveto 
138.6920  466.9451 lineto 
130.1386  465.7416 moveto 
130.1386  465.7416 lineto 
130.1386  465.7416 moveto 
130.1386  465.7416 lineto 
130.1386  465.7416 moveto 
128.7443  465.8729 lineto 
128.9317  467.8641 moveto 
128.5568  463.8817 lineto 
126.0000  466.7703 moveto 
124.5075  467.8728 lineto 
125.6958  469.4815 moveto 
123.3191  466.2641 lineto 
126.0000  466.7703 moveto 
127.2730  466.7703 lineto 
127.2730  464.7703 moveto 
127.2730  468.7703 lineto 
126.0000  466.7703 moveto 
126.7463  466.2190 lineto 
125.5579  464.6103 moveto 
127.9346  467.8277 lineto 
stroke

0.0000  0.5000 0.0000 setrgbcolor
newpath
120.4157  461.8979 moveto 
120.4157  461.8979 lineto 
120.4157  461.8979 moveto 
120.4157  461.8979 lineto 
120.4157  461.8979 moveto 
99.6652  461.8979 lineto 
99.6652  463.8979 moveto 
99.6652  459.8979 lineto 
120.4157  461.8979 moveto 
125.4913  461.8979 lineto 
125.4913  459.8979 moveto 
125.4913  463.8979 lineto 
120.4157  461.8979 moveto 
105.6761  461.8979 lineto 
105.6761  463.8979 moveto 
105.6761  459.8979 lineto 
120.4157  461.8979 moveto 
114.0773  461.8979 lineto 
114.0773  463.8979 moveto 
114.0773  459.8979 lineto 
120.4157  461.8979 moveto 
124.9274  461.8979 lineto 
124.9274  459.8979 moveto 
124.9274  463.8979 lineto 
114.8598  382.6363 moveto 
114.8598  382.6363 lineto 
114.8598  382.6363 moveto 
114.8598  382.6363 lineto 
114.8598  382.6363 moveto 
111.8280  382.6363 lineto 
111.8280  384.6363 moveto 
111.8280  380.6363 lineto 
114.8598  382.6363 moveto 
122.5608  382.6363 lineto 
122.5608  380.6363 moveto 
122.5608  384.6363 lineto 
114.8598  382.6363 moveto 
148.8803  382.6363 lineto 
148.8803  380.2549 moveto 
148.8803  385.0178 lineto 
114.8598  382.6363 moveto 
118.0601  382.6363 lineto 
118.0601  380.6363 moveto 
118.0601  384.6363 lineto 
108.0000  350.3344 moveto 
108.0000  350.3344 lineto 
108.0000  350.3344 moveto 
108.0000  350.3344 lineto 
108.0000  350.3344 moveto 
104.7623  350.3344 lineto 
104.7623  352.3344 moveto 
104.7623  348.3344 lineto 
108.0000  350.3344 moveto 
76.8995  350.3344 lineto 
76.8995  352.5114 moveto 
76.8995  348.1574 lineto 
108.0000  350.3344 moveto 
95.8110  350.3344 lineto 
95.8110  352.3344 moveto 
95.8110  348.3344 lineto 
108.0000  350.3344 moveto 
106.0548  350.3344 lineto 
106.0548  352.3344 moveto 
106.0548  348.3344 lineto 
108.0000  350.3344 moveto 
131.8817  350.3344 lineto 
131.8817  348.3344 moveto 
131.8817  352.3344 lineto 
108.0000  350.3344 moveto 
155.0018  350.3344 lineto 
155.0018  347.0443 moveto 
155.0018  353.6245 lineto 
108.0000  350.3344 moveto 
119.1916  350.3344 lineto 
119.1916  348.3344 moveto 
119.1916  352.3344 lineto 
100.5165  322.4063 moveto 
100.5165  322.4063 lineto 
100.5165  322.4063 moveto 
100.5165  322.4063 lineto 
100.5165  322.4063 moveto 
92.7530  322.4063 lineto 
92.7530  324.4063 moveto 
92.7530  320.4063 lineto 
100.5165  322.4063 moveto 
92.2098  322.4063 lineto 
92.2098  324.4063 moveto 
92.2098  320.4063 lineto 
100.5165  322.4063 moveto 
132.7252  322.4063 lineto 
132.7252  320.1517 moveto 
132.7252  324.6609 lineto 
100.5165  322.4063 moveto 
109.0090  322.4063 lineto 
109.0090  320.4063 moveto 
109.0090  324.4063 lineto 
100.5165  322.4063 moveto 
97.6780  322.4063 lineto 
97.6780  324.4063 moveto 
97.6780  320.4063 lineto 
95.8394  284.4239 moveto 
95.8394  284.4239 lineto 
95.8394  284.4239 moveto 
95.8394  284.4239 lineto 
95.8394  284.4239 moveto 
84.7618  284.4239 lineto 
84.7618  286.4239 moveto 
84.7618  282.4239 lineto 
95.8394  284.4239 moveto 
103.7587  284.4239 lineto 
103.7587  282.4239 moveto 
103.7587  286.4239 lineto 
95.8394  284.4239 moveto 
102.1535  284.4239 lineto 
102.1535  282.4239 moveto 
102.1535  286.4239 lineto 
95.8394  284.4239 moveto 
136.9417  284.4239 lineto 
136.9417  281.5467 moveto 
136.9417  287.3010 lineto 
95.8394  284.4239 moveto 
116.8163  284.4239 lineto 
116.8163  282.4239 moveto 
116.8163  286.4239 lineto 
90.3969  253.4373 moveto 
93.4587  253.4373 lineto 
93.4587  251.4373 moveto 
93.4587  255.4373 lineto 
90.3969  253.4373 moveto 
85.7198  253.4373 lineto 
85.7198  255.4373 moveto 
85.7198  251.4373 lineto 
90.3969  253.4373 moveto 
73.2961  253.4373 lineto 
73.2961  255.4373 moveto 
73.2961  251.4373 lineto 
90.3969  253.4373 moveto 
85.3022  253.4373 lineto 
85.3022  255.4373 moveto 
85.3022  251.4373 lineto 
90.3969  253.4373 moveto 
107.8288  253.4373 lineto 
107.8288  251.4373 moveto 
107.8288  255.4373 lineto 
90.3969  253.4373 moveto 
100.8293  253.4373 lineto 
100.8293  251.4373 moveto 
100.8293  255.4373 lineto 
69.8457  214.2549 moveto 
115.8564  233.5075 lineto 
117.2041  230.2868 moveto 
114.5087  236.7283 lineto 
69.8457  214.2549 moveto 
92.5994  218.4235 lineto 
92.9598  216.4562 moveto 
92.2390  220.3907 lineto 
69.8457  214.2549 moveto 
71.2578  214.2549 lineto 
71.2578  212.2549 moveto 
71.2578  216.2549 lineto 
69.8457  214.2549 moveto 
53.8156  214.2549 lineto 
53.8156  216.2549 moveto 
53.8156  212.2549 lineto 
69.8457  214.2549 moveto 
69.8457  214.2549 lineto 
69.8457  214.2549 moveto 
69.8457  214.2549 lineto 
stroke

0.0000  1.0000 1.0000 setrgbcolor
newpath
64.8567  213.1331 moveto 
67.4833  214.2810 lineto 
68.2842  212.4483 moveto 
66.6824  216.1136 lineto 
64.8567  213.1331 moveto 
52.3097  213.1331 lineto 
52.3097  215.1331 moveto 
52.3097  211.1331 lineto 
64.8567  213.1331 moveto 
59.1397  213.1331 lineto 
59.1397  215.1331 moveto 
59.1397  211.1331 lineto 
64.8567  213.1331 moveto 
65.7504  213.1331 lineto 
65.7504  211.1331 moveto 
65.7504  215.1331 lineto 
57.0898  192.1304 moveto 
57.0898  192.1304 lineto 
57.0898  192.1304 moveto 
57.0898  192.1304 lineto 
57.0898  192.1304 moveto 
48.0189  192.1304 lineto 
48.0189  194.1304 moveto 
48.0189  190.1304 lineto 
57.0898  192.1304 moveto 
39.2315  192.1304 lineto 
39.2315  194.1304 moveto 
39.2315  190.1304 lineto 
29.7354  184.6879 moveto 
23.4222  195.3788 lineto 
25.1443  196.3958 moveto 
21.7000  194.3619 lineto 
29.7354  184.6879 moveto 
29.8464  184.6879 lineto 
29.8464  182.6879 moveto 
29.8464  186.6879 lineto 
29.7354  184.6879 moveto 
29.7354  184.6879 lineto 
29.7354  184.6879 moveto 
29.7354  184.6879 lineto 
29.7354  184.6879 moveto 
22.1696  184.6879 lineto 
22.1696  186.6879 moveto 
22.1696  182.6879 lineto 
49.6913  178.7833 moveto 
52.0255  178.7833 lineto 
52.0255  176.7833 moveto 
52.0255  180.7833 lineto 
49.6913  178.7833 moveto 
43.5784  178.7833 lineto 
43.5784  180.7833 moveto 
43.5784  176.7833 lineto 
49.6913  178.7833 moveto 
66.8526  178.7833 lineto 
66.8526  176.7833 moveto 
66.8526  180.7833 lineto 
40.5071  135.1084 moveto 
29.7354  135.1084 lineto 
29.7354  137.1084 moveto 
29.7354  133.1084 lineto 
40.5071  135.1084 moveto 
21.5150  135.1084 lineto 
21.5150  137.1084 moveto 
21.5150  133.1084 lineto 
40.5071  135.1084 moveto 
41.4334  135.1084 lineto 
41.4334  133.1084 moveto 
41.4334  137.1084 lineto 
23.0173  137.4895 moveto 
9.7432  137.4895 lineto 
9.7432  139.4895 moveto 
9.7432  135.4895 lineto 
23.0173  137.4895 moveto 
20.8651  137.4895 lineto 
20.8651  139.4895 moveto 
20.8651  135.4895 lineto 
23.0173  137.4895 moveto 
23.0173  137.4895 lineto 
23.0173  137.4895 moveto 
23.0173  137.4895 lineto 
23.0173  137.4895 moveto 
10.3032  137.4895 lineto 
10.3032  139.4895 moveto 
10.3032  135.4895 lineto 
21.4016  91.1461 moveto 
21.4016  91.1461 lineto 
21.4016  91.1461 moveto 
21.4016  91.1461 lineto 
21.4016  91.1461 moveto 
20.5848  91.1461 lineto 
20.5848  93.1461 moveto 
20.5848  89.1461 lineto 
21.4016  91.1461 moveto 
28.1192  91.1461 lineto 
28.1192  89.1461 moveto 
28.1192  93.1461 lineto 
21.4016  91.1461 moveto 
34.0843  91.1461 lineto 
34.0843  89.1461 moveto 
34.0843  93.1461 lineto 
21.4016  91.1461 moveto 
32.3250  91.1461 lineto 
32.3250  89.1461 moveto 
32.3250  93.1461 lineto 
14.7118  43.4262 moveto 
14.7118  43.4262 lineto 
14.7118  43.4262 moveto 
14.7118  43.4262 lineto 
14.7118  43.4262 moveto 
9.7510  43.4262 lineto 
9.7510  45.4262 moveto 
9.7510  41.4262 lineto 
14.7118  43.4262 moveto 
-13.6776  43.4262 lineto 
-13.6776  45.4262 moveto 
-13.6776  41.4262 lineto 
14.7118  43.4262 moveto 
6.9347  43.4262 lineto 
6.9347  45.4262 moveto 
6.9347  41.4262 lineto 
14.7118  43.4262 moveto 
21.1409  43.4262 lineto 
21.1409  41.4262 moveto 
21.1409  45.4262 lineto 
14.7118  43.4262 moveto 
30.2736  43.4262 lineto 
30.2736  41.4262 moveto 
30.2736  45.4262 lineto 
stroke

 
0.2000 setlinewidth
0 0 0 setrgbcolor
newpath
386.4268  716.4567   moveto 385.4268  716.4567  1.00   0 360 arc closepath
380.2189  716.9102   moveto 379.2189  716.9102  1.00   0 360 arc closepath
371.8000  698.0315   moveto 370.8000  698.0315  1.00   0 360 arc closepath
362.0205  699.5906   moveto 361.0205  699.5906  1.00   0 360 arc closepath
348.4142  699.5906   moveto 347.4142  699.5906  1.00   0 360 arc closepath
346.5433  688.9890   moveto 345.5433  688.9890  1.00   0 360 arc closepath
341.5827  681.3922   moveto 340.5827  681.3922  1.00   0 360 arc closepath
332.0866  672.2079   moveto 331.0866  672.2079  1.00   0 360 arc closepath
317.0913  638.5323   moveto 316.0913  638.5323  1.00   0 360 arc closepath
309.2110  593.8866   moveto 308.2110  593.8866  1.00   0 360 arc closepath
305.0441  588.5291   moveto 304.0441  588.5291  1.00   0 360 arc closepath
291.6646  576.4819   moveto 290.6646  576.4819  1.00   0 360 arc closepath
287.8378  576.6803   moveto 286.8378  576.6803  1.00   0 360 arc closepath
282.1685  576.8787   moveto 281.1685  576.8787  1.00   0 360 arc closepath
277.6898  577.5591   moveto 276.6898  577.5591  1.00   0 360 arc closepath
270.5464  564.6614   moveto 269.5464  564.6614  1.00   0 360 arc closepath
265.1323  567.7795   moveto 264.1323  567.7795  1.00   0 360 arc closepath
255.7496  563.8110   moveto 254.7496  563.8110  1.00   0 360 arc closepath
251.3842  543.2882   moveto 250.3842  543.2882  1.00   0 360 arc closepath
231.7402  531.9496   moveto 230.7402  531.9496  1.00   0 360 arc closepath
225.8441  526.6205   moveto 224.8441  526.6205  1.00   0 360 arc closepath
219.7780  529.7102   moveto 218.7780  529.7102  1.00   0 360 arc closepath
211.2457  510.5480   moveto 210.2457  510.5480  1.00   0 360 arc closepath
223.4630  445.4362   moveto 222.4630  445.4362  1.00   0 360 arc closepath
212.0677  443.2252   moveto 211.0677  443.2252  1.00   0 360 arc closepath
223.4630  445.4362   moveto 222.4630  445.4362  1.00   0 360 arc closepath
213.6551  457.5685   moveto 212.6551  457.5685  1.00   0 360 arc closepath
207.2205  498.1606   moveto 206.2205  498.1606  1.00   0 360 arc closepath
211.2457  510.5480   moveto 210.2457  510.5480  1.00   0 360 arc closepath
207.2205  498.1606   moveto 206.2205  498.1606  1.00   0 360 arc closepath
174.9055  502.4693   moveto 173.9055  502.4693  1.00   0 360 arc closepath
159.9386  517.9748   moveto 158.9386  517.9748  1.00   0 360 arc closepath
155.1480  517.5496   moveto 154.1480  517.5496  1.00   0 360 arc closepath
148.2882  490.0535   moveto 147.2882  490.0535  1.00   0 360 arc closepath
148.2882  477.2976   moveto 147.2882  477.2976  1.00   0 360 arc closepath
140.4079  474.0945   moveto 139.4079  474.0945  1.00   0 360 arc closepath
131.1386  465.7606   moveto 130.1386  465.7606  1.00   0 360 arc closepath
127.0000  466.7811   moveto 126.0000  466.7811  1.00   0 360 arc closepath
121.4157  461.9055   moveto 120.4157  461.9055  1.00   0 360 arc closepath
115.8598  382.6488   moveto 114.8598  382.6488  1.00   0 360 arc closepath
109.0000  350.3622   moveto 108.0000  350.3622  1.00   0 360 arc closepath
101.5165  322.4126   moveto 100.5165  322.4126  1.00   0 360 arc closepath
96.8394  284.4283   moveto 95.8394  284.4283  1.00   0 360 arc closepath
91.3969  253.4457   moveto 90.3969  253.4457  1.00   0 360 arc closepath
80.7386  213.7606   moveto 79.7386  213.7606  1.00   0 360 arc closepath
44.8803  223.3701   moveto 43.8803  223.3701  1.00   0 360 arc closepath
28.1559  211.6630   moveto 27.1559  211.6630  1.00   0 360 arc closepath
80.7386  213.7606   moveto 79.7386  213.7606  1.00   0 360 arc closepath
70.8457  214.2709   moveto 69.8457  214.2709  1.00   0 360 arc closepath
65.8567  213.1370   moveto 64.8567  213.1370  1.00   0 360 arc closepath
58.0898  192.1323   moveto 57.0898  192.1323  1.00   0 360 arc closepath
30.7354  184.7055   moveto 29.7354  184.7055  1.00   0 360 arc closepath
22.8835  166.7622   moveto 21.8835  166.7622  1.00   0 360 arc closepath
58.0898  192.1323   moveto 57.0898  192.1323  1.00   0 360 arc closepath
54.7732  191.7071   moveto 53.7732  191.7071  1.00   0 360 arc closepath
50.6913  178.8094   moveto 49.6913  178.8094  1.00   0 360 arc closepath
41.5071  135.1276   moveto 40.5071  135.1276  1.00   0 360 arc closepath
24.0173  137.5087   moveto 23.0173  137.5087  1.00   0 360 arc closepath
5.7622  166.7622   moveto 4.7622  166.7622  1.00   0 360 arc closepath
41.5071  135.1276   moveto 40.5071  135.1276  1.00   0 360 arc closepath
30.4520  134.6457   moveto 29.4520  134.6457  1.00   0 360 arc closepath
22.4016  91.1622   moveto 21.4016  91.1622  1.00   0 360 arc closepath
15.7118  43.4268   moveto 14.7118  43.4268  1.00   0 360 arc closepath
6.6126  0.7370   moveto 5.6126  0.7370  1.00   0 360 arc closepath
1.0000  0.0000   moveto 0.0000  0.0000  1.00   0 360 arc closepath
stroke
 
0.9 0.17 0.17 setrgbcolor
newpath
stroke
 
showpage
%%EOF
